{
  "Dhcp6": {
    "renew-timer": 1000,
    "rebind-timer": 2000,
    "preferred-lifetime": 3000,
    "valid-lifetime": 4000,
    "lease-database": {
      "type": "memfile",
      "persist": true,
      "name": "/tmp/kea-leases6.csv",
      "lfc-interval": 1800
    },
    "interfaces-config": {
      "interfaces": [ "eth0/2001:db8:4::1000" ]
    },
    "mac-sources": ["duid"],
    "subnet6": [
      {
        "subnet": "2001:db8:4::/64",
        "id": 1,
        "interface": "eth0",
        "pools": [
        ]
      },
      {
        "subnet": "2001:db8:1234:2001::/64",
        "id": 2,
        "interface-id": "2001:db8:1234:2001::2",
        "pools": [
          { "pool": "2001:db8:1234:2001::10-2001:db8:1234:2001::ffff" }
        ],
        "pd-pools": [
          {
            "prefix": "2001:db8:2222::",
            "prefix-len": 48,
            "delegated-len": 64
          }
        ]
      },
      {
        "subnet": "2001:db8:1234:2002::/64",
        "id": 3,
        "interface-id": "2001:db8:1234:2002::2",
        "pools": [
          { "pool": "2001:db8:1234:2002::10-2001:db8:1234:2002::ffff" }
        ],
        "pd-pools": [
          {
            "prefix": "2001:db8:2222::",
            "prefix-len": 48,
            "delegated-len": 64
          }
        ]
      },
      {
        "subnet": "2001:db8:1234:2003::/64",
        "id": 4,
        "interface-id": "2001:db8:1234:2003::2",
        "pools": [
          { "pool": "2001:db8:1234:2003::10-2001:db8:1234:2003::ffff" }
        ],
        "pd-pools": [
          {
            "prefix": "2001:db8:2222::",
            "prefix-len": 48,
            "delegated-len": 64
          }
        ]
      },
      {
        "subnet": "2001:db8:1234:2004::/64",
        "id": 5,
        "interface-id": "2001:db8:1234:2004::2",
        "pools": [
          { "pool": "2001:db8:1234:2004::10-2001:db8:1234:2004::ffff" }
        ],
        "pd-pools": [
          {
            "prefix": "2001:db8:2222::",
            "prefix-len": 48,
            "delegated-len": 64
          }
        ]
      }
    ],
    "loggers": [
      {
        "name": "kea-dhcp6",
        "output_options": [
          {
            "output": "stdout"
          }
        ],
        "debuglevel": 0,
        "severity": "INFO"
      }
    ]
  }
}
